{
  "project_info": {
    "project_number": "165776233986",
    "project_id": "book-app-3005a",
    "storage_bucket": "book-app-3005a.appspot.com"
  },
  "client": [
    {
      "client_info": {
        "mobilesdk_app_id": "1:165776233986:android:3b553f82d1f178941e791b",
        "android_client_info": {
          "package_name": "com.example.cmapp"
        }
      },
      "oauth_client": [
        {
          "client_id": "165776233986-61dct801v7q0fasomcg1rqj5koe6lb8l.apps.googleusercontent.com",
          "client_type": 3
        }
      ],
      "api_key": [
        {
          "current_key": "AIzaSyDZo32uIYL4U1OTKNFGqRACZvHWG4joKBQ"
        }
      ],
      "services": {
        "appinvite_service": {
          "other_platform_oauth_client": [
            {
              "client_id": "165776233986-61dct801v7q0fasomcg1rqj5koe6lb8l.apps.googleusercontent.com",
              "client_type": 3
            }
          ]
        }
      }
    }
  ],
  "configuration_version": "1"
}